<svg id="Layer_1" data-name="Layer 1" xmlns="http://www.w3.org/2000/svg" viewBox="0 0 127.82 67.06">
  <defs>
    <style>
      .cls-1 {
        fill: #fff;
        stroke: #000;
        stroke-miterlimit: 10;
      }

      .cls-2 {
        font-size: 34px;
        fill: #5cb85c;
      }

      .cls-2, .cls-4 {
        font-family: BwSurco-BoldItalic, Bw Surco;
        font-weight: 700;
        font-style: italic;
      }

      .cls-3 {
        letter-spacing: -0.02em;
      }

      .cls-4 {
        font-size: 44px;
        fill: #0275d8;
      }

      .cls-5 {
        letter-spacing: -0.01em;
      }

      .cls-6 {
        letter-spacing: 0em;
      }

      .cls-7 {
        letter-spacing: 0em;
      }

      .cls-8 {
        letter-spacing: 0em;
      }

      .cls-9 {
        letter-spacing: -0.01em;
      }
    </style>
  </defs>
  <path class="cls-1" d="M237,74.53" transform="translate(-81 -114.76)"/>
  <text class="cls-2" transform="translate(27 29.24)">Ou<tspan class="cls-3" x="43.15" y="0">r</tspan></text>
  <text class="cls-4" transform="translate(0 56.24)"><tspan class="cls-5">R</tspan><tspan x="27.24" y="0">e</tspan><tspan class="cls-6" x="49.06" y="0">n</tspan><tspan class="cls-7" x="73.52" y="0">t</tspan><tspan class="cls-8" x="90.64" y="0">a</tspan><tspan class="cls-9" x="115.15" y="0">l</tspan></text>
</svg>
